{
  "name": "PeopleVoice",
  "app_id": "",
  "type": "ionic-angular",
  "integrations": {
    "cordova": {}
  },
  "proxies": [
    {
      "path": "/api",
      "proxyUrl": "http://2.msr-mbnr.appspot.com/api/"
    }
  ]
}